<soapenv:Envelope xmlns:soapenv="http://schemas.xmlsoap.org/soap/envelope/" xmlns:err="http://amdocs.com/oss/aff/schema/error">
   <soapenv:Header/>
   <soapenv:Body>
      <err:errorResolved>
         <err:errorResolved>
            <err:planID>2C56E778820B4366A4D920BD4CF97E4A1542709296</err:planID>
            <err:activityID>077F062FD7D240B2BC19D8372458FF87</err:activityID>
            <err:errorID>A502053C874F4FCA967E2E0BB82A14B5</err:errorID>
         </err:errorResolved>
      </err:errorResolved>
   </soapenv:Body>
</soapenv:Envelope>
