<soapenv:Envelope xmlns:soapenv="http://schemas.xmlsoap.org/soap/envelope/" xmlns:err="http://amdocs.com/oss/aff/schema/error">
   <soapenv:Header/>
   <soapenv:Body>
      <err:errorResolved>
         <err:errorResolved>
            <err:planID>8228AF9F1CAE4420975D0349056C51D51544949042</err:planID>
            <err:activityID>81B26A68E5D34BA8BCB0499A1A46D2C3</err:activityID>
            <err:errorID>EA41C2B191CF47F6A20FF13C3BB17B2B</err:errorID>
         </err:errorResolved>
      </err:errorResolved>
   </soapenv:Body>
</soapenv:Envelope>
