<soapenv:Envelope xmlns:soapenv="http://schemas.xmlsoap.org/soap/envelope/" xmlns:err="http://amdocs.com/oss/aff/schema/error">
   <soapenv:Header/>
   <soapenv:Body>
      <err:errorResolved>
         <err:errorResolved>
            <err:planID>8F435A297DAE497298FECD773DCA989E1543750404</err:planID>
            <err:activityID>8BB3268682B74949983040E6BB95185F</err:activityID>
            <err:errorID>4A756170C7194BF9B8CCC7E5D5D5DF13</err:errorID>
         </err:errorResolved>
      </err:errorResolved>
   </soapenv:Body>
</soapenv:Envelope>
