<soapenv:Envelope xmlns:soapenv="http://schemas.xmlsoap.org/soap/envelope/" xmlns:err="http://amdocs.com/oss/aff/schema/error">
   <soapenv:Header/>
   <soapenv:Body>
      <err:errorResolved>
         <err:errorResolved>
            <err:planID>8228AF9F1CAE4420975D0349056C51D51544949042</err:planID>
            <err:activityID>1287371A343B4DEFB41842A7707B69E7</err:activityID>
            <err:errorID>A06C9C651B784F3D9909DFEE36F4CEA9</err:errorID>
         </err:errorResolved>
      </err:errorResolved>
   </soapenv:Body>
</soapenv:Envelope>
